<?xml version="1.0" encoding="utf-8"?>
<!-- Generator: Adobe Illustrator 18.1.1, SVG Export Plug-In . SVG Version: 6.00 Build 0)  -->
<svg version="1.1" id="Layer_1" xmlns="http://www.w3.org/2000/svg" xmlns:xlink="http://www.w3.org/1999/xlink" x="0px" y="0px"
	 viewBox="0 0 411 255.1" enable-background="new 0 0 411 255.1" xml:space="preserve">
<g>
	<path fill="#D5DFEA" d="M19,191.5c-1.8-4-2.5-8.6-1.7-13.3L39.3,49l-9-0.7c-13-1-23.4,8.8-23.2,21.8l3.2,159.3
		c0.3,13.1,11.1,23.2,24.2,22.5l250.3-13.5l-37.6-5.1L36.8,204.8C28.6,203.7,22.1,198.5,19,191.5z"/>
	<path fill="#007399" d="M354.9,104.8c-2-12.9-13.9-26.3-26.4-29.8L70.9,4C58.3,0.6,46.2,8.3,44,21.1L39.3,49l-22,129.2
		c-0.8,4.7-0.1,9.3,1.7,13.3c3.1,6.9,9.7,12.1,17.8,13.2l210.3,28.5l37.6,5.1l68.8,9.3c12.9,1.8,21.9-7.4,20-20.3L354.9,104.8z
		 M156.1,141.3c0-26.2,21.1-47.5,49.5-47.5c28.3,0,49.2,20.9,49.2,47.2v0.3c0,26.2-21.1,47.5-49.5,47.5c-28.3,0-49.2-20.9-49.2-47.2
		V141.3z M54,62.4h25.9v46.1c6.3-8.5,15-14.8,28.4-14.8c21.3,0,41.5,16.7,41.5,47.2v0.3c0,30.5-19.9,47.2-41.5,47.2
		c-13.8,0-22.3-6.3-28.4-13.6v11.9H54V62.4z M312.4,186.7L294,158.3l-18.4,28.4h-27.1l32-46.3l-30.8-44.9h27.8l17,26.7l17.2-26.7
		h27.1l-30.8,44.6l32.2,46.7H312.4z"/>
	<path fill="#FFFFFF" d="M79.9,174.8c6.1,7.3,14.6,13.6,28.4,13.6c21.6,0,41.5-16.7,41.5-47.2v-0.3c0-30.5-20.3-47.2-41.5-47.2
		c-13.5,0-22.1,6.3-28.4,14.8V62.4H54v124.3h25.9V174.8z M79.5,140.9c0-15.2,10-25.2,22.1-25.2c12.1,0,22.3,10,22.3,25.2v0.3
		c0,15.3-10.2,25.2-22.3,25.2c-12.1,0-22.1-10-22.1-25.2V140.9z"/>
	<path fill="#FFFFFF" d="M205.3,188.8c28.4,0,49.5-21.3,49.5-47.5v-0.3c0-26.2-20.9-47.2-49.2-47.2c-28.4,0-49.5,21.3-49.5,47.5v0.3
		C156.1,167.8,177,188.8,205.3,188.8z M181.6,140.9c0-13.5,8.9-24.9,23.7-24.9c14.3,0,24,11.8,24,25.2v0.3
		c0,13.5-8.9,24.9-23.7,24.9c-14.3,0-24-11.7-24-25.2V140.9z"/>
	<polygon fill="#FFFFFF" points="338.8,95.5 311.7,95.5 294.5,122.2 277.5,95.5 249.7,95.5 280.5,140.4 248.5,186.7 275.6,186.7 
		294,158.3 312.4,186.7 340.1,186.7 307.9,140.1 	"/>
	<path fill="#FFFFFF" d="M354.1,76c8.9,0,14.7-4.4,14.7-14.5V44.2h-8.8v17.6c0,4.4-2.3,6.4-5.8,6.4c-3.5,0-5.8-2.1-5.8-6.7V44.2
		h-8.8v17.6C339.6,71.5,345.2,76,354.1,76z"/>
	<polygon fill="#FFFFFF" points="391.7,57.6 403.5,44.2 393.3,44.2 382.5,56.9 382.5,44.2 373.8,44.2 373.8,75.4 382.5,75.4 
		382.5,67.4 385.7,63.8 393.5,75.4 403.9,75.4 	"/>
	<path fill="#007399" d="M101.7,166.5c12.1,0,22.3-9.9,22.3-25.2v-0.3c0-15.2-10.2-25.2-22.3-25.2c-12.1,0-22.1,10-22.1,25.2v0.3
		C79.5,156.4,89.6,166.5,101.7,166.5z"/>
	<path fill="#007399" d="M205.6,166.5c14.8,0,23.7-11.4,23.7-24.9v-0.3c0-13.5-9.7-25.2-24-25.2c-14.8,0-23.7,11.4-23.7,24.9v0.3
		C181.6,154.7,191.3,166.5,205.6,166.5z"/>
</g>
</svg>
